%YAML 1.1
%TAG !u! tag:unity3d.com,2011:
--- !u!114 &11400000
MonoBehaviour:
  m_ObjectHideFlags: 0
  m_PrefabParentObject: {fileID: 0}
  m_PrefabInternal: {fileID: 0}
  m_GameObject: {fileID: 0}
  m_Enabled: 1
  m_EditorHideFlags: 0
  m_Script: {fileID: 11500000, guid: 3e8f11a07b5d9ad4dbe9fe96266618da, type: 3}
  m_Name: World0
  m_EditorClassIdentifier: 
  Levels:
  - ID: 0
    Unlocked: 1
    Time: 6.812122
    SilverSplit: 12
    GoldSplit: 8
  - ID: 1
    Unlocked: 1
    Time: 18.641918
    SilverSplit: 28
    GoldSplit: 24
  - ID: 2
    Unlocked: 1
    Time: 17.273523
    SilverSplit: 24
    GoldSplit: 20
  - ID: 3
    Unlocked: 1
    Time: 15.1578665
    SilverSplit: 22
    GoldSplit: 18
  - ID: 4
    Unlocked: 1
    Time: 12.60153
    SilverSplit: 18
    GoldSplit: 15
  - ID: 5
    Unlocked: 1
    Time: 12.6895075
    SilverSplit: 16
    GoldSplit: 14
  - ID: 6
    Unlocked: 1
    Time: 19.846178
    SilverSplit: 25
    GoldSplit: 22
  - ID: 7
    Unlocked: 1
    Time: 16.549242
    SilverSplit: 20
    GoldSplit: 18
  - ID: 8
    Unlocked: 1
    Time: 20.049654
    SilverSplit: 24
    GoldSplit: 22
  - ID: 9
    Unlocked: 1
    Time: 18.038698
    SilverSplit: 24
    GoldSplit: 20
  - ID: 10
    Unlocked: 1
    Time: 12.3134775
    SilverSplit: 15
    GoldSplit: 13
  - ID: 11
    Unlocked: 1
    Time: 10.168614
    SilverSplit: 14
    GoldSplit: 11
  - ID: 12
    Unlocked: 1
    Time: 8.55581
    SilverSplit: 12
    GoldSplit: 10
  - ID: 13
    Unlocked: 1
    Time: 11.438749
    SilverSplit: 14
    GoldSplit: 12
  - ID: 14
    Unlocked: 1
    Time: 27.239712
    SilverSplit: 32
    GoldSplit: 30
  Completed: 0
