%YAML 1.1
%TAG !u! tag:unity3d.com,2011:
--- !u!29 &1
OcclusionCullingSettings:
  m_ObjectHideFlags: 0
  serializedVersion: 2
  m_OcclusionBakeSettings:
    smallestOccluder: 5
    smallestHole: 0.25
    backfaceThreshold: 100
  m_SceneGUID: 00000000000000000000000000000000
  m_OcclusionCullingData: {fileID: 0}
--- !u!104 &2
RenderSettings:
  m_ObjectHideFlags: 0
  serializedVersion: 8
  m_Fog: 0
  m_FogColor: {r: 0.5, g: 0.5, b: 0.5, a: 1}
  m_FogMode: 3
  m_FogDensity: 0.01
  m_LinearFogStart: 0
  m_LinearFogEnd: 300
  m_AmbientSkyColor: {r: 0.212, g: 0.227, b: 0.259, a: 1}
  m_AmbientEquatorColor: {r: 0.114, g: 0.125, b: 0.133, a: 1}
  m_AmbientGroundColor: {r: 0.047, g: 0.043, b: 0.035, a: 1}
  m_AmbientIntensity: 1
  m_AmbientMode: 3
  m_SubtractiveShadowColor: {r: 0.42, g: 0.478, b: 0.627, a: 1}
  m_SkyboxMaterial: {fileID: 0}
  m_HaloStrength: 0.5
  m_FlareStrength: 1
  m_FlareFadeSpeed: 3
  m_HaloTexture: {fileID: 0}
  m_SpotCookie: {fileID: 10001, guid: 0000000000000000e000000000000000, type: 0}
  m_DefaultReflectionMode: 0
  m_DefaultReflectionResolution: 128
  m_ReflectionBounces: 1
  m_ReflectionIntensity: 1
  m_CustomReflection: {fileID: 0}
  m_Sun: {fileID: 0}
  m_IndirectSpecularColor: {r: 0, g: 0, b: 0, a: 1}
--- !u!157 &3
LightmapSettings:
  m_ObjectHideFlags: 0
  serializedVersion: 11
  m_GIWorkflowMode: 1
  m_GISettings:
    serializedVersion: 2
    m_BounceScale: 1
    m_IndirectOutputScale: 1
    m_AlbedoBoost: 1
    m_TemporalCoherenceThreshold: 1
    m_EnvironmentLightingMode: 0
    m_EnableBakedLightmaps: 0
    m_EnableRealtimeLightmaps: 0
  m_LightmapEditorSettings:
    serializedVersion: 9
    m_Resolution: 2
    m_BakeResolution: 40
    m_TextureWidth: 1024
    m_TextureHeight: 1024
    m_AO: 0
    m_AOMaxDistance: 1
    m_CompAOExponent: 1
    m_CompAOExponentDirect: 0
    m_Padding: 2
    m_LightmapParameters: {fileID: 0}
    m_LightmapsBakeMode: 1
    m_TextureCompression: 1
    m_FinalGather: 0
    m_FinalGatherFiltering: 1
    m_FinalGatherRayCount: 256
    m_ReflectionCompression: 2
    m_MixedBakeMode: 2
    m_BakeBackend: 0
    m_PVRSampling: 1
    m_PVRDirectSampleCount: 32
    m_PVRSampleCount: 500
    m_PVRBounces: 2
    m_PVRFilterTypeDirect: 0
    m_PVRFilterTypeIndirect: 0
    m_PVRFilterTypeAO: 0
    m_PVRFilteringMode: 1
    m_PVRCulling: 1
    m_PVRFilteringGaussRadiusDirect: 1
    m_PVRFilteringGaussRadiusIndirect: 5
    m_PVRFilteringGaussRadiusAO: 2
    m_PVRFilteringAtrousPositionSigmaDirect: 0.5
    m_PVRFilteringAtrousPositionSigmaIndirect: 2
    m_PVRFilteringAtrousPositionSigmaAO: 1
    m_ShowResolutionOverlay: 1
  m_LightingDataAsset: {fileID: 0}
  m_UseShadowmask: 1
--- !u!196 &4
NavMeshSettings:
  serializedVersion: 2
  m_ObjectHideFlags: 0
  m_BuildSettings:
    serializedVersion: 2
    agentTypeID: 0
    agentRadius: 0.5
    agentHeight: 2
    agentSlope: 45
    agentClimb: 0.4
    ledgeDropHeight: 0
    maxJumpAcrossDistance: 0
    minRegionArea: 2
    manualCellSize: 0
    cellSize: 0.16666667
    manualTileSize: 0
    tileSize: 256
    accuratePlacement: 0
    debug:
      m_Flags: 0
  m_NavMeshData: {fileID: 0}
--- !u!1001 &227152001
Prefab:
  m_ObjectHideFlags: 0
  serializedVersion: 2
  m_Modification:
    m_TransformParent: {fileID: 0}
    m_Modifications:
    - target: {fileID: 4526294593114380, guid: e3288193e5324d243ba57a471201fa58, type: 2}
      propertyPath: m_LocalPosition.x
      value: 70
      objectReference: {fileID: 0}
    - target: {fileID: 4526294593114380, guid: e3288193e5324d243ba57a471201fa58, type: 2}
      propertyPath: m_LocalPosition.y
      value: -2
      objectReference: {fileID: 0}
    - target: {fileID: 4526294593114380, guid: e3288193e5324d243ba57a471201fa58, type: 2}
      propertyPath: m_LocalPosition.z
      value: 0
      objectReference: {fileID: 0}
    - target: {fileID: 4526294593114380, guid: e3288193e5324d243ba57a471201fa58, type: 2}
      propertyPath: m_LocalRotation.x
      value: 0
      objectReference: {fileID: 0}
    - target: {fileID: 4526294593114380, guid: e3288193e5324d243ba57a471201fa58, type: 2}
      propertyPath: m_LocalRotation.y
      value: 0
      objectReference: {fileID: 0}
    - target: {fileID: 4526294593114380, guid: e3288193e5324d243ba57a471201fa58, type: 2}
      propertyPath: m_LocalRotation.z
      value: 0
      objectReference: {fileID: 0}
    - target: {fileID: 4526294593114380, guid: e3288193e5324d243ba57a471201fa58, type: 2}
      propertyPath: m_LocalRotation.w
      value: 1
      objectReference: {fileID: 0}
    - target: {fileID: 4526294593114380, guid: e3288193e5324d243ba57a471201fa58, type: 2}
      propertyPath: m_RootOrder
      value: 5
      objectReference: {fileID: 0}
    - target: {fileID: 251743781967118544, guid: e3288193e5324d243ba57a471201fa58,
        type: 2}
      propertyPath: m_SurfaceArc
      value: 190
      objectReference: {fileID: 0}
    - target: {fileID: 4526294593114380, guid: e3288193e5324d243ba57a471201fa58, type: 2}
      propertyPath: m_LocalScale.x
      value: 60
      objectReference: {fileID: 0}
    - target: {fileID: 1830092850189602, guid: e3288193e5324d243ba57a471201fa58, type: 2}
      propertyPath: m_Name
      value: SuperCable (1)
      objectReference: {fileID: 0}
    m_RemovedComponents: []
  m_ParentPrefab: {fileID: 100100000, guid: e3288193e5324d243ba57a471201fa58, type: 2}
  m_IsPrefabParent: 0
--- !u!1001 &278896609
Prefab:
  m_ObjectHideFlags: 0
  serializedVersion: 2
  m_Modification:
    m_TransformParent: {fileID: 0}
    m_Modifications:
    - target: {fileID: 4049164635226166, guid: c0b81fb69142f7c45b28530377ef129e, type: 2}
      propertyPath: m_LocalPosition.x
      value: 55
      objectReference: {fileID: 0}
    - target: {fileID: 4049164635226166, guid: c0b81fb69142f7c45b28530377ef129e, type: 2}
      propertyPath: m_LocalPosition.y
      value: 10
      objectReference: {fileID: 0}
    - target: {fileID: 4049164635226166, guid: c0b81fb69142f7c45b28530377ef129e, type: 2}
      propertyPath: m_LocalPosition.z
      value: -1
      objectReference: {fileID: 0}
    - target: {fileID: 4049164635226166, guid: c0b81fb69142f7c45b28530377ef129e, type: 2}
      propertyPath: m_LocalRotation.x
      value: 0
      objectReference: {fileID: 0}
    - target: {fileID: 4049164635226166, guid: c0b81fb69142f7c45b28530377ef129e, type: 2}
      propertyPath: m_LocalRotation.y
      value: 0
      objectReference: {fileID: 0}
    - target: {fileID: 4049164635226166, guid: c0b81fb69142f7c45b28530377ef129e, type: 2}
      propertyPath: m_LocalRotation.z
      value: 0
      objectReference: {fileID: 0}
    - target: {fileID: 4049164635226166, guid: c0b81fb69142f7c45b28530377ef129e, type: 2}
      propertyPath: m_LocalRotation.w
      value: 1
      objectReference: {fileID: 0}
    - target: {fileID: 4049164635226166, guid: c0b81fb69142f7c45b28530377ef129e, type: 2}
      propertyPath: m_RootOrder
      value: 9
      objectReference: {fileID: 0}
    - target: {fileID: 1967556929869636, guid: c0b81fb69142f7c45b28530377ef129e, type: 2}
      propertyPath: m_Name
      value: Connector (1)
      objectReference: {fileID: 0}
    - target: {fileID: 114988413917739784, guid: c0b81fb69142f7c45b28530377ef129e,
        type: 2}
      propertyPath: End
      value: 
      objectReference: {fileID: 0}
    - target: {fileID: 120100884092301146, guid: c0b81fb69142f7c45b28530377ef129e,
        type: 2}
      propertyPath: m_Positions.Array.data[0].x
      value: 38
      objectReference: {fileID: 0}
    - target: {fileID: 120100884092301146, guid: c0b81fb69142f7c45b28530377ef129e,
        type: 2}
      propertyPath: m_Positions.Array.data[0].y
      value: 12
      objectReference: {fileID: 0}
    - target: {fileID: 120100884092301146, guid: c0b81fb69142f7c45b28530377ef129e,
        type: 2}
      propertyPath: m_Positions.Array.data[0].z
      value: -1
      objectReference: {fileID: 0}
    - target: {fileID: 120100884092301146, guid: c0b81fb69142f7c45b28530377ef129e,
        type: 2}
      propertyPath: m_Positions.Array.data[1].x
      value: 14.799999
      objectReference: {fileID: 0}
    - target: {fileID: 120100884092301146, guid: c0b81fb69142f7c45b28530377ef129e,
        type: 2}
      propertyPath: m_Positions.Array.data[1].y
      value: 7.2
      objectReference: {fileID: 0}
    - target: {fileID: 120100884092301146, guid: c0b81fb69142f7c45b28530377ef129e,
        type: 2}
      propertyPath: m_Positions.Array.data[1].z
      value: -1
      objectReference: {fileID: 0}
    - target: {fileID: 120100884092301146, guid: c0b81fb69142f7c45b28530377ef129e,
        type: 2}
      propertyPath: m_Enabled
      value: 0
      objectReference: {fileID: 0}
    m_RemovedComponents: []
  m_ParentPrefab: {fileID: 100100000, guid: c0b81fb69142f7c45b28530377ef129e, type: 2}
  m_IsPrefabParent: 0
--- !u!114 &278896610 stripped
MonoBehaviour:
  m_PrefabParentObject: {fileID: 114988413917739784, guid: c0b81fb69142f7c45b28530377ef129e,
    type: 2}
  m_PrefabInternal: {fileID: 278896609}
  m_Script: {fileID: 11500000, guid: 55c1e303b92e5c4478e7b41588a11d5d, type: 3}
--- !u!1001 &501945273
Prefab:
  m_ObjectHideFlags: 0
  serializedVersion: 2
  m_Modification:
    m_TransformParent: {fileID: 0}
    m_Modifications:
    - target: {fileID: 4049164635226166, guid: c0b81fb69142f7c45b28530377ef129e, type: 2}
      propertyPath: m_LocalPosition.x
      value: 170
      objectReference: {fileID: 0}
    - target: {fileID: 4049164635226166, guid: c0b81fb69142f7c45b28530377ef129e, type: 2}
      propertyPath: m_LocalPosition.y
      value: -1
      objectReference: {fileID: 0}
    - target: {fileID: 4049164635226166, guid: c0b81fb69142f7c45b28530377ef129e, type: 2}
      propertyPath: m_LocalPosition.z
      value: -1
      objectReference: {fileID: 0}
    - target: {fileID: 4049164635226166, guid: c0b81fb69142f7c45b28530377ef129e, type: 2}
      propertyPath: m_LocalRotation.x
      value: 0
      objectReference: {fileID: 0}
    - target: {fileID: 4049164635226166, guid: c0b81fb69142f7c45b28530377ef129e, type: 2}
      propertyPath: m_LocalRotation.y
      value: 0
      objectReference: {fileID: 0}
    - target: {fileID: 4049164635226166, guid: c0b81fb69142f7c45b28530377ef129e, type: 2}
      propertyPath: m_LocalRotation.z
      value: 0
      objectReference: {fileID: 0}
    - target: {fileID: 4049164635226166, guid: c0b81fb69142f7c45b28530377ef129e, type: 2}
      propertyPath: m_LocalRotation.w
      value: 1
      objectReference: {fileID: 0}
    - target: {fileID: 4049164635226166, guid: c0b81fb69142f7c45b28530377ef129e, type: 2}
      propertyPath: m_RootOrder
      value: 13
      objectReference: {fileID: 0}
    - target: {fileID: 114988413917739784, guid: c0b81fb69142f7c45b28530377ef129e,
        type: 2}
      propertyPath: End
      value: 
      objectReference: {fileID: 278896610}
    - target: {fileID: 1967556929869636, guid: c0b81fb69142f7c45b28530377ef129e, type: 2}
      propertyPath: m_Name
      value: Connector (4)
      objectReference: {fileID: 0}
    - target: {fileID: 120100884092301146, guid: c0b81fb69142f7c45b28530377ef129e,
        type: 2}
      propertyPath: m_Positions.Array.data[0].x
      value: 170
      objectReference: {fileID: 0}
    - target: {fileID: 120100884092301146, guid: c0b81fb69142f7c45b28530377ef129e,
        type: 2}
      propertyPath: m_Positions.Array.data[0].y
      value: -1
      objectReference: {fileID: 0}
    - target: {fileID: 120100884092301146, guid: c0b81fb69142f7c45b28530377ef129e,
        type: 2}
      propertyPath: m_Positions.Array.data[0].z
      value: -1
      objectReference: {fileID: 0}
    - target: {fileID: 120100884092301146, guid: c0b81fb69142f7c45b28530377ef129e,
        type: 2}
      propertyPath: m_Positions.Array.data[1].x
      value: 55
      objectReference: {fileID: 0}
    - target: {fileID: 120100884092301146, guid: c0b81fb69142f7c45b28530377ef129e,
        type: 2}
      propertyPath: m_Positions.Array.data[1].y
      value: 10
      objectReference: {fileID: 0}
    - target: {fileID: 120100884092301146, guid: c0b81fb69142f7c45b28530377ef129e,
        type: 2}
      propertyPath: m_Positions.Array.data[1].z
      value: -1
      objectReference: {fileID: 0}
    m_RemovedComponents: []
  m_ParentPrefab: {fileID: 100100000, guid: c0b81fb69142f7c45b28530377ef129e, type: 2}
  m_IsPrefabParent: 0
--- !u!1001 &639009264
Prefab:
  m_ObjectHideFlags: 0
  serializedVersion: 2
  m_Modification:
    m_TransformParent: {fileID: 0}
    m_Modifications:
    - target: {fileID: 4526294593114380, guid: e3288193e5324d243ba57a471201fa58, type: 2}
      propertyPath: m_LocalPosition.x
      value: 170
      objectReference: {fileID: 0}
    - target: {fileID: 4526294593114380, guid: e3288193e5324d243ba57a471201fa58, type: 2}
      propertyPath: m_LocalPosition.y
      value: -2
      objectReference: {fileID: 0}
    - target: {fileID: 4526294593114380, guid: e3288193e5324d243ba57a471201fa58, type: 2}
      propertyPath: m_LocalPosition.z
      value: 0
      objectReference: {fileID: 0}
    - target: {fileID: 4526294593114380, guid: e3288193e5324d243ba57a471201fa58, type: 2}
      propertyPath: m_LocalRotation.x
      value: 0
      objectReference: {fileID: 0}
    - target: {fileID: 4526294593114380, guid: e3288193e5324d243ba57a471201fa58, type: 2}
      propertyPath: m_LocalRotation.y
      value: 0
      objectReference: {fileID: 0}
    - target: {fileID: 4526294593114380, guid: e3288193e5324d243ba57a471201fa58, type: 2}
      propertyPath: m_LocalRotation.z
      value: 0
      objectReference: {fileID: 0}
    - target: {fileID: 4526294593114380, guid: e3288193e5324d243ba57a471201fa58, type: 2}
      propertyPath: m_LocalRotation.w
      value: 1
      objectReference: {fileID: 0}
    - target: {fileID: 4526294593114380, guid: e3288193e5324d243ba57a471201fa58, type: 2}
      propertyPath: m_RootOrder
      value: 12
      objectReference: {fileID: 0}
    - target: {fileID: 251743781967118544, guid: e3288193e5324d243ba57a471201fa58,
        type: 2}
      propertyPath: m_SurfaceArc
      value: 190
      objectReference: {fileID: 0}
    - target: {fileID: 4526294593114380, guid: e3288193e5324d243ba57a471201fa58, type: 2}
      propertyPath: m_LocalScale.x
      value: 60
      objectReference: {fileID: 0}
    - target: {fileID: 1830092850189602, guid: e3288193e5324d243ba57a471201fa58, type: 2}
      propertyPath: m_Name
      value: SuperCable (3)
      objectReference: {fileID: 0}
    m_RemovedComponents: []
  m_ParentPrefab: {fileID: 100100000, guid: e3288193e5324d243ba57a471201fa58, type: 2}
  m_IsPrefabParent: 0
--- !u!1001 &729261132
Prefab:
  m_ObjectHideFlags: 0
  serializedVersion: 2
  m_Modification:
    m_TransformParent: {fileID: 0}
    m_Modifications:
    - target: {fileID: 4049164635226166, guid: c0b81fb69142f7c45b28530377ef129e, type: 2}
      propertyPath: m_LocalPosition.x
      value: 9
      objectReference: {fileID: 0}
    - target: {fileID: 4049164635226166, guid: c0b81fb69142f7c45b28530377ef129e, type: 2}
      propertyPath: m_LocalPosition.y
      value: 6
      objectReference: {fileID: 0}
    - target: {fileID: 4049164635226166, guid: c0b81fb69142f7c45b28530377ef129e, type: 2}
      propertyPath: m_LocalPosition.z
      value: -1
      objectReference: {fileID: 0}
    - target: {fileID: 4049164635226166, guid: c0b81fb69142f7c45b28530377ef129e, type: 2}
      propertyPath: m_LocalRotation.x
      value: 0
      objectReference: {fileID: 0}
    - target: {fileID: 4049164635226166, guid: c0b81fb69142f7c45b28530377ef129e, type: 2}
      propertyPath: m_LocalRotation.y
      value: 0
      objectReference: {fileID: 0}
    - target: {fileID: 4049164635226166, guid: c0b81fb69142f7c45b28530377ef129e, type: 2}
      propertyPath: m_LocalRotation.z
      value: 0
      objectReference: {fileID: 0}
    - target: {fileID: 4049164635226166, guid: c0b81fb69142f7c45b28530377ef129e, type: 2}
      propertyPath: m_LocalRotation.w
      value: 1
      objectReference: {fileID: 0}
    - target: {fileID: 4049164635226166, guid: c0b81fb69142f7c45b28530377ef129e, type: 2}
      propertyPath: m_RootOrder
      value: 8
      objectReference: {fileID: 0}
    - target: {fileID: 114988413917739784, guid: c0b81fb69142f7c45b28530377ef129e,
        type: 2}
      propertyPath: End
      value: 
      objectReference: {fileID: 278896610}
    - target: {fileID: 120100884092301146, guid: c0b81fb69142f7c45b28530377ef129e,
        type: 2}
      propertyPath: m_Positions.Array.data[0].x
      value: 9
      objectReference: {fileID: 0}
    - target: {fileID: 120100884092301146, guid: c0b81fb69142f7c45b28530377ef129e,
        type: 2}
      propertyPath: m_Positions.Array.data[0].y
      value: 6
      objectReference: {fileID: 0}
    - target: {fileID: 120100884092301146, guid: c0b81fb69142f7c45b28530377ef129e,
        type: 2}
      propertyPath: m_Positions.Array.data[0].z
      value: -1
      objectReference: {fileID: 0}
    - target: {fileID: 120100884092301146, guid: c0b81fb69142f7c45b28530377ef129e,
        type: 2}
      propertyPath: m_Positions.Array.data[1].x
      value: 55
      objectReference: {fileID: 0}
    - target: {fileID: 120100884092301146, guid: c0b81fb69142f7c45b28530377ef129e,
        type: 2}
      propertyPath: m_Positions.Array.data[1].y
      value: 10
      objectReference: {fileID: 0}
    - target: {fileID: 120100884092301146, guid: c0b81fb69142f7c45b28530377ef129e,
        type: 2}
      propertyPath: m_Positions.Array.data[1].z
      value: -1
      objectReference: {fileID: 0}
    m_RemovedComponents: []
  m_ParentPrefab: {fileID: 100100000, guid: c0b81fb69142f7c45b28530377ef129e, type: 2}
  m_IsPrefabParent: 0
--- !u!1001 &853097509
Prefab:
  m_ObjectHideFlags: 0
  serializedVersion: 2
  m_Modification:
    m_TransformParent: {fileID: 0}
    m_Modifications:
    - target: {fileID: 4304421688054024, guid: 1de26b7242afc8049831dbbb30ede30a, type: 2}
      propertyPath: m_LocalPosition.x
      value: 120
      objectReference: {fileID: 0}
    - target: {fileID: 4304421688054024, guid: 1de26b7242afc8049831dbbb30ede30a, type: 2}
      propertyPath: m_LocalPosition.y
      value: 10
      objectReference: {fileID: 0}
    - target: {fileID: 4304421688054024, guid: 1de26b7242afc8049831dbbb30ede30a, type: 2}
      propertyPath: m_LocalPosition.z
      value: -1
      objectReference: {fileID: 0}
    - target: {fileID: 4304421688054024, guid: 1de26b7242afc8049831dbbb30ede30a, type: 2}
      propertyPath: m_LocalRotation.x
      value: 0
      objectReference: {fileID: 0}
    - target: {fileID: 4304421688054024, guid: 1de26b7242afc8049831dbbb30ede30a, type: 2}
      propertyPath: m_LocalRotation.y
      value: -0
      objectReference: {fileID: 0}
    - target: {fileID: 4304421688054024, guid: 1de26b7242afc8049831dbbb30ede30a, type: 2}
      propertyPath: m_LocalRotation.z
      value: -0
      objectReference: {fileID: 0}
    - target: {fileID: 4304421688054024, guid: 1de26b7242afc8049831dbbb30ede30a, type: 2}
      propertyPath: m_LocalRotation.w
      value: 1
      objectReference: {fileID: 0}
    - target: {fileID: 4304421688054024, guid: 1de26b7242afc8049831dbbb30ede30a, type: 2}
      propertyPath: m_RootOrder
      value: 1
      objectReference: {fileID: 0}
    m_RemovedComponents: []
  m_ParentPrefab: {fileID: 100100000, guid: 1de26b7242afc8049831dbbb30ede30a, type: 2}
  m_IsPrefabParent: 0
--- !u!1001 &1097992439
Prefab:
  m_ObjectHideFlags: 0
  serializedVersion: 2
  m_Modification:
    m_TransformParent: {fileID: 0}
    m_Modifications:
    - target: {fileID: 4134505093642648, guid: 6ae292e954d10db4093259aa43acf37d, type: 2}
      propertyPath: m_LocalPosition.x
      value: 45
      objectReference: {fileID: 0}
    - target: {fileID: 4134505093642648, guid: 6ae292e954d10db4093259aa43acf37d, type: 2}
      propertyPath: m_LocalPosition.y
      value: 1
      objectReference: {fileID: 0}
    - target: {fileID: 4134505093642648, guid: 6ae292e954d10db4093259aa43acf37d, type: 2}
      propertyPath: m_LocalPosition.z
      value: -1
      objectReference: {fileID: 0}
    - target: {fileID: 4134505093642648, guid: 6ae292e954d10db4093259aa43acf37d, type: 2}
      propertyPath: m_LocalRotation.x
      value: 0
      objectReference: {fileID: 0}
    - target: {fileID: 4134505093642648, guid: 6ae292e954d10db4093259aa43acf37d, type: 2}
      propertyPath: m_LocalRotation.y
      value: -0
      objectReference: {fileID: 0}
    - target: {fileID: 4134505093642648, guid: 6ae292e954d10db4093259aa43acf37d, type: 2}
      propertyPath: m_LocalRotation.z
      value: -0
      objectReference: {fileID: 0}
    - target: {fileID: 4134505093642648, guid: 6ae292e954d10db4093259aa43acf37d, type: 2}
      propertyPath: m_LocalRotation.w
      value: 1
      objectReference: {fileID: 0}
    - target: {fileID: 4134505093642648, guid: 6ae292e954d10db4093259aa43acf37d, type: 2}
      propertyPath: m_RootOrder
      value: 6
      objectReference: {fileID: 0}
    - target: {fileID: 1830407429239888, guid: 6ae292e954d10db4093259aa43acf37d, type: 2}
      propertyPath: m_Name
      value: WaterPlane (2)
      objectReference: {fileID: 0}
    m_RemovedComponents: []
  m_ParentPrefab: {fileID: 100100000, guid: 6ae292e954d10db4093259aa43acf37d, type: 2}
  m_IsPrefabParent: 0
--- !u!1001 &1656074478
Prefab:
  m_ObjectHideFlags: 0
  serializedVersion: 2
  m_Modification:
    m_TransformParent: {fileID: 0}
    m_Modifications:
    - target: {fileID: 4526294593114380, guid: e3288193e5324d243ba57a471201fa58, type: 2}
      propertyPath: m_LocalPosition.x
      value: -10
      objectReference: {fileID: 0}
    - target: {fileID: 4526294593114380, guid: e3288193e5324d243ba57a471201fa58, type: 2}
      propertyPath: m_LocalPosition.y
      value: 8
      objectReference: {fileID: 0}
    - target: {fileID: 4526294593114380, guid: e3288193e5324d243ba57a471201fa58, type: 2}
      propertyPath: m_LocalPosition.z
      value: 0
      objectReference: {fileID: 0}
    - target: {fileID: 4526294593114380, guid: e3288193e5324d243ba57a471201fa58, type: 2}
      propertyPath: m_LocalRotation.x
      value: 0
      objectReference: {fileID: 0}
    - target: {fileID: 4526294593114380, guid: e3288193e5324d243ba57a471201fa58, type: 2}
      propertyPath: m_LocalRotation.y
      value: 0
      objectReference: {fileID: 0}
    - target: {fileID: 4526294593114380, guid: e3288193e5324d243ba57a471201fa58, type: 2}
      propertyPath: m_LocalRotation.z
      value: 0
      objectReference: {fileID: 0}
    - target: {fileID: 4526294593114380, guid: e3288193e5324d243ba57a471201fa58, type: 2}
      propertyPath: m_LocalRotation.w
      value: 1
      objectReference: {fileID: 0}
    - target: {fileID: 4526294593114380, guid: e3288193e5324d243ba57a471201fa58, type: 2}
      propertyPath: m_RootOrder
      value: 4
      objectReference: {fileID: 0}
    - target: {fileID: 251743781967118544, guid: e3288193e5324d243ba57a471201fa58,
        type: 2}
      propertyPath: m_SurfaceArc
      value: 190
      objectReference: {fileID: 0}
    - target: {fileID: 4526294593114380, guid: e3288193e5324d243ba57a471201fa58, type: 2}
      propertyPath: m_LocalScale.x
      value: 20
      objectReference: {fileID: 0}
    m_RemovedComponents: []
  m_ParentPrefab: {fileID: 100100000, guid: e3288193e5324d243ba57a471201fa58, type: 2}
  m_IsPrefabParent: 0
--- !u!1001 &1664224466
Prefab:
  m_ObjectHideFlags: 0
  serializedVersion: 2
  m_Modification:
    m_TransformParent: {fileID: 0}
    m_Modifications:
    - target: {fileID: 4049164635226166, guid: c0b81fb69142f7c45b28530377ef129e, type: 2}
      propertyPath: m_LocalPosition.x
      value: 54
      objectReference: {fileID: 0}
    - target: {fileID: 4049164635226166, guid: c0b81fb69142f7c45b28530377ef129e, type: 2}
      propertyPath: m_LocalPosition.y
      value: 0
      objectReference: {fileID: 0}
    - target: {fileID: 4049164635226166, guid: c0b81fb69142f7c45b28530377ef129e, type: 2}
      propertyPath: m_LocalPosition.z
      value: -1
      objectReference: {fileID: 0}
    - target: {fileID: 4049164635226166, guid: c0b81fb69142f7c45b28530377ef129e, type: 2}
      propertyPath: m_LocalRotation.x
      value: 0
      objectReference: {fileID: 0}
    - target: {fileID: 4049164635226166, guid: c0b81fb69142f7c45b28530377ef129e, type: 2}
      propertyPath: m_LocalRotation.y
      value: 0
      objectReference: {fileID: 0}
    - target: {fileID: 4049164635226166, guid: c0b81fb69142f7c45b28530377ef129e, type: 2}
      propertyPath: m_LocalRotation.z
      value: 0
      objectReference: {fileID: 0}
    - target: {fileID: 4049164635226166, guid: c0b81fb69142f7c45b28530377ef129e, type: 2}
      propertyPath: m_LocalRotation.w
      value: 1
      objectReference: {fileID: 0}
    - target: {fileID: 4049164635226166, guid: c0b81fb69142f7c45b28530377ef129e, type: 2}
      propertyPath: m_RootOrder
      value: 10
      objectReference: {fileID: 0}
    - target: {fileID: 114988413917739784, guid: c0b81fb69142f7c45b28530377ef129e,
        type: 2}
      propertyPath: End
      value: 
      objectReference: {fileID: 1867797857}
    - target: {fileID: 1967556929869636, guid: c0b81fb69142f7c45b28530377ef129e, type: 2}
      propertyPath: m_Name
      value: Connector (2)
      objectReference: {fileID: 0}
    - target: {fileID: 120100884092301146, guid: c0b81fb69142f7c45b28530377ef129e,
        type: 2}
      propertyPath: m_Positions.Array.data[0].x
      value: 54
      objectReference: {fileID: 0}
    - target: {fileID: 120100884092301146, guid: c0b81fb69142f7c45b28530377ef129e,
        type: 2}
      propertyPath: m_Positions.Array.data[0].y
      value: 0
      objectReference: {fileID: 0}
    - target: {fileID: 120100884092301146, guid: c0b81fb69142f7c45b28530377ef129e,
        type: 2}
      propertyPath: m_Positions.Array.data[0].z
      value: -1
      objectReference: {fileID: 0}
    - target: {fileID: 120100884092301146, guid: c0b81fb69142f7c45b28530377ef129e,
        type: 2}
      propertyPath: m_Positions.Array.data[1].x
      value: 169
      objectReference: {fileID: 0}
    - target: {fileID: 120100884092301146, guid: c0b81fb69142f7c45b28530377ef129e,
        type: 2}
      propertyPath: m_Positions.Array.data[1].y
      value: 15
      objectReference: {fileID: 0}
    - target: {fileID: 120100884092301146, guid: c0b81fb69142f7c45b28530377ef129e,
        type: 2}
      propertyPath: m_Positions.Array.data[1].z
      value: -1
      objectReference: {fileID: 0}
    m_RemovedComponents: []
  m_ParentPrefab: {fileID: 100100000, guid: c0b81fb69142f7c45b28530377ef129e, type: 2}
  m_IsPrefabParent: 0
--- !u!114 &1664224467 stripped
MonoBehaviour:
  m_PrefabParentObject: {fileID: 114988413917739784, guid: c0b81fb69142f7c45b28530377ef129e,
    type: 2}
  m_PrefabInternal: {fileID: 1664224466}
  m_Script: {fileID: 11500000, guid: 55c1e303b92e5c4478e7b41588a11d5d, type: 3}
--- !u!1001 &1693396310
Prefab:
  m_ObjectHideFlags: 0
  serializedVersion: 2
  m_Modification:
    m_TransformParent: {fileID: 0}
    m_Modifications:
    - target: {fileID: 4526294593114380, guid: e3288193e5324d243ba57a471201fa58, type: 2}
      propertyPath: m_LocalPosition.x
      value: 170
      objectReference: {fileID: 0}
    - target: {fileID: 4526294593114380, guid: e3288193e5324d243ba57a471201fa58, type: 2}
      propertyPath: m_LocalPosition.y
      value: 8
      objectReference: {fileID: 0}
    - target: {fileID: 4526294593114380, guid: e3288193e5324d243ba57a471201fa58, type: 2}
      propertyPath: m_LocalPosition.z
      value: 0
      objectReference: {fileID: 0}
    - target: {fileID: 4526294593114380, guid: e3288193e5324d243ba57a471201fa58, type: 2}
      propertyPath: m_LocalRotation.x
      value: 0
      objectReference: {fileID: 0}
    - target: {fileID: 4526294593114380, guid: e3288193e5324d243ba57a471201fa58, type: 2}
      propertyPath: m_LocalRotation.y
      value: 0
      objectReference: {fileID: 0}
    - target: {fileID: 4526294593114380, guid: e3288193e5324d243ba57a471201fa58, type: 2}
      propertyPath: m_LocalRotation.z
      value: 0
      objectReference: {fileID: 0}
    - target: {fileID: 4526294593114380, guid: e3288193e5324d243ba57a471201fa58, type: 2}
      propertyPath: m_LocalRotation.w
      value: 1
      objectReference: {fileID: 0}
    - target: {fileID: 4526294593114380, guid: e3288193e5324d243ba57a471201fa58, type: 2}
      propertyPath: m_RootOrder
      value: 7
      objectReference: {fileID: 0}
    - target: {fileID: 251743781967118544, guid: e3288193e5324d243ba57a471201fa58,
        type: 2}
      propertyPath: m_SurfaceArc
      value: 190
      objectReference: {fileID: 0}
    - target: {fileID: 4526294593114380, guid: e3288193e5324d243ba57a471201fa58, type: 2}
      propertyPath: m_LocalScale.x
      value: 60
      objectReference: {fileID: 0}
    - target: {fileID: 1830092850189602, guid: e3288193e5324d243ba57a471201fa58, type: 2}
      propertyPath: m_Name
      value: SuperCable (2)
      objectReference: {fileID: 0}
    m_RemovedComponents: []
  m_ParentPrefab: {fileID: 100100000, guid: e3288193e5324d243ba57a471201fa58, type: 2}
  m_IsPrefabParent: 0
--- !u!1001 &1828607327
Prefab:
  m_ObjectHideFlags: 0
  serializedVersion: 2
  m_Modification:
    m_TransformParent: {fileID: 0}
    m_Modifications:
    - target: {fileID: 4660404986793316, guid: ef6d0052c2412e946a309574104729b8, type: 2}
      propertyPath: m_LocalPosition.x
      value: -6
      objectReference: {fileID: 0}
    - target: {fileID: 4660404986793316, guid: ef6d0052c2412e946a309574104729b8, type: 2}
      propertyPath: m_LocalPosition.y
      value: 10
      objectReference: {fileID: 0}
    - target: {fileID: 4660404986793316, guid: ef6d0052c2412e946a309574104729b8, type: 2}
      propertyPath: m_LocalPosition.z
      value: 0
      objectReference: {fileID: 0}
    - target: {fileID: 4660404986793316, guid: ef6d0052c2412e946a309574104729b8, type: 2}
      propertyPath: m_LocalRotation.x
      value: 0
      objectReference: {fileID: 0}
    - target: {fileID: 4660404986793316, guid: ef6d0052c2412e946a309574104729b8, type: 2}
      propertyPath: m_LocalRotation.y
      value: 0
      objectReference: {fileID: 0}
    - target: {fileID: 4660404986793316, guid: ef6d0052c2412e946a309574104729b8, type: 2}
      propertyPath: m_LocalRotation.z
      value: 0
      objectReference: {fileID: 0}
    - target: {fileID: 4660404986793316, guid: ef6d0052c2412e946a309574104729b8, type: 2}
      propertyPath: m_LocalRotation.w
      value: 1
      objectReference: {fileID: 0}
    - target: {fileID: 4660404986793316, guid: ef6d0052c2412e946a309574104729b8, type: 2}
      propertyPath: m_RootOrder
      value: 2
      objectReference: {fileID: 0}
    - target: {fileID: 114449042354070106, guid: ef6d0052c2412e946a309574104729b8,
        type: 2}
      propertyPath: WaterGravity
      value: 0.25
      objectReference: {fileID: 0}
    - target: {fileID: 212603246569692634, guid: ef6d0052c2412e946a309574104729b8,
        type: 2}
      propertyPath: m_SortingOrder
      value: 0
      objectReference: {fileID: 0}
    m_RemovedComponents: []
  m_ParentPrefab: {fileID: 100100000, guid: ef6d0052c2412e946a309574104729b8, type: 2}
  m_IsPrefabParent: 0
--- !u!1001 &1867797856
Prefab:
  m_ObjectHideFlags: 0
  serializedVersion: 2
  m_Modification:
    m_TransformParent: {fileID: 0}
    m_Modifications:
    - target: {fileID: 4049164635226166, guid: c0b81fb69142f7c45b28530377ef129e, type: 2}
      propertyPath: m_LocalPosition.x
      value: 169
      objectReference: {fileID: 0}
    - target: {fileID: 4049164635226166, guid: c0b81fb69142f7c45b28530377ef129e, type: 2}
      propertyPath: m_LocalPosition.y
      value: 15
      objectReference: {fileID: 0}
    - target: {fileID: 4049164635226166, guid: c0b81fb69142f7c45b28530377ef129e, type: 2}
      propertyPath: m_LocalPosition.z
      value: -1
      objectReference: {fileID: 0}
    - target: {fileID: 4049164635226166, guid: c0b81fb69142f7c45b28530377ef129e, type: 2}
      propertyPath: m_LocalRotation.x
      value: 0
      objectReference: {fileID: 0}
    - target: {fileID: 4049164635226166, guid: c0b81fb69142f7c45b28530377ef129e, type: 2}
      propertyPath: m_LocalRotation.y
      value: 0
      objectReference: {fileID: 0}
    - target: {fileID: 4049164635226166, guid: c0b81fb69142f7c45b28530377ef129e, type: 2}
      propertyPath: m_LocalRotation.z
      value: 0
      objectReference: {fileID: 0}
    - target: {fileID: 4049164635226166, guid: c0b81fb69142f7c45b28530377ef129e, type: 2}
      propertyPath: m_LocalRotation.w
      value: 1
      objectReference: {fileID: 0}
    - target: {fileID: 4049164635226166, guid: c0b81fb69142f7c45b28530377ef129e, type: 2}
      propertyPath: m_RootOrder
      value: 11
      objectReference: {fileID: 0}
    - target: {fileID: 114988413917739784, guid: c0b81fb69142f7c45b28530377ef129e,
        type: 2}
      propertyPath: End
      value: 
      objectReference: {fileID: 1664224467}
    - target: {fileID: 1967556929869636, guid: c0b81fb69142f7c45b28530377ef129e, type: 2}
      propertyPath: m_Name
      value: Connector (3)
      objectReference: {fileID: 0}
    - target: {fileID: 120100884092301146, guid: c0b81fb69142f7c45b28530377ef129e,
        type: 2}
      propertyPath: m_Positions.Array.data[0].x
      value: 169
      objectReference: {fileID: 0}
    - target: {fileID: 120100884092301146, guid: c0b81fb69142f7c45b28530377ef129e,
        type: 2}
      propertyPath: m_Positions.Array.data[0].y
      value: 15
      objectReference: {fileID: 0}
    - target: {fileID: 120100884092301146, guid: c0b81fb69142f7c45b28530377ef129e,
        type: 2}
      propertyPath: m_Positions.Array.data[0].z
      value: -1
      objectReference: {fileID: 0}
    - target: {fileID: 120100884092301146, guid: c0b81fb69142f7c45b28530377ef129e,
        type: 2}
      propertyPath: m_Positions.Array.data[1].x
      value: 54
      objectReference: {fileID: 0}
    - target: {fileID: 120100884092301146, guid: c0b81fb69142f7c45b28530377ef129e,
        type: 2}
      propertyPath: m_Positions.Array.data[1].y
      value: 0
      objectReference: {fileID: 0}
    - target: {fileID: 120100884092301146, guid: c0b81fb69142f7c45b28530377ef129e,
        type: 2}
      propertyPath: m_Positions.Array.data[1].z
      value: -1
      objectReference: {fileID: 0}
    m_RemovedComponents: []
  m_ParentPrefab: {fileID: 100100000, guid: c0b81fb69142f7c45b28530377ef129e, type: 2}
  m_IsPrefabParent: 0
--- !u!114 &1867797857 stripped
MonoBehaviour:
  m_PrefabParentObject: {fileID: 114988413917739784, guid: c0b81fb69142f7c45b28530377ef129e,
    type: 2}
  m_PrefabInternal: {fileID: 1867797856}
  m_Script: {fileID: 11500000, guid: 55c1e303b92e5c4478e7b41588a11d5d, type: 3}
--- !u!1001 &1981787287
Prefab:
  m_ObjectHideFlags: 0
  serializedVersion: 2
  m_Modification:
    m_TransformParent: {fileID: 0}
    m_Modifications:
    - target: {fileID: 4884723083483774, guid: 769f3f1f2872662469ed17fe0b8510bc, type: 2}
      propertyPath: m_LocalPosition.x
      value: 0
      objectReference: {fileID: 0}
    - target: {fileID: 4884723083483774, guid: 769f3f1f2872662469ed17fe0b8510bc, type: 2}
      propertyPath: m_LocalPosition.y
      value: 0
      objectReference: {fileID: 0}
    - target: {fileID: 4884723083483774, guid: 769f3f1f2872662469ed17fe0b8510bc, type: 2}
      propertyPath: m_LocalPosition.z
      value: -10
      objectReference: {fileID: 0}
    - target: {fileID: 4884723083483774, guid: 769f3f1f2872662469ed17fe0b8510bc, type: 2}
      propertyPath: m_LocalRotation.x
      value: 0
      objectReference: {fileID: 0}
    - target: {fileID: 4884723083483774, guid: 769f3f1f2872662469ed17fe0b8510bc, type: 2}
      propertyPath: m_LocalRotation.y
      value: 0
      objectReference: {fileID: 0}
    - target: {fileID: 4884723083483774, guid: 769f3f1f2872662469ed17fe0b8510bc, type: 2}
      propertyPath: m_LocalRotation.z
      value: 0
      objectReference: {fileID: 0}
    - target: {fileID: 4884723083483774, guid: 769f3f1f2872662469ed17fe0b8510bc, type: 2}
      propertyPath: m_LocalRotation.w
      value: 1
      objectReference: {fileID: 0}
    - target: {fileID: 4884723083483774, guid: 769f3f1f2872662469ed17fe0b8510bc, type: 2}
      propertyPath: m_RootOrder
      value: 0
      objectReference: {fileID: 0}
    m_RemovedComponents: []
  m_ParentPrefab: {fileID: 100100000, guid: 769f3f1f2872662469ed17fe0b8510bc, type: 2}
  m_IsPrefabParent: 0
--- !u!1001 &2088636334
Prefab:
  m_ObjectHideFlags: 0
  serializedVersion: 2
  m_Modification:
    m_TransformParent: {fileID: 0}
    m_Modifications:
    - target: {fileID: 4526294593114380, guid: 5ff7ab96e33d7ff4e98af5c0e8c3b981, type: 2}
      propertyPath: m_LocalPosition.x
      value: 20
      objectReference: {fileID: 0}
    - target: {fileID: 4526294593114380, guid: 5ff7ab96e33d7ff4e98af5c0e8c3b981, type: 2}
      propertyPath: m_LocalPosition.y
      value: 3
      objectReference: {fileID: 0}
    - target: {fileID: 4526294593114380, guid: 5ff7ab96e33d7ff4e98af5c0e8c3b981, type: 2}
      propertyPath: m_LocalPosition.z
      value: 0
      objectReference: {fileID: 0}
    - target: {fileID: 4526294593114380, guid: 5ff7ab96e33d7ff4e98af5c0e8c3b981, type: 2}
      propertyPath: m_LocalRotation.x
      value: 0
      objectReference: {fileID: 0}
    - target: {fileID: 4526294593114380, guid: 5ff7ab96e33d7ff4e98af5c0e8c3b981, type: 2}
      propertyPath: m_LocalRotation.y
      value: 0
      objectReference: {fileID: 0}
    - target: {fileID: 4526294593114380, guid: 5ff7ab96e33d7ff4e98af5c0e8c3b981, type: 2}
      propertyPath: m_LocalRotation.z
      value: 0
      objectReference: {fileID: 0}
    - target: {fileID: 4526294593114380, guid: 5ff7ab96e33d7ff4e98af5c0e8c3b981, type: 2}
      propertyPath: m_LocalRotation.w
      value: 1
      objectReference: {fileID: 0}
    - target: {fileID: 4526294593114380, guid: 5ff7ab96e33d7ff4e98af5c0e8c3b981, type: 2}
      propertyPath: m_RootOrder
      value: 3
      objectReference: {fileID: 0}
    - target: {fileID: 198852291993702854, guid: 5ff7ab96e33d7ff4e98af5c0e8c3b981,
        type: 2}
      propertyPath: InitialModule.startColor.maxColor.g
      value: 0.82952946
      objectReference: {fileID: 0}
    - target: {fileID: 198852291993702854, guid: 5ff7ab96e33d7ff4e98af5c0e8c3b981,
        type: 2}
      propertyPath: InitialModule.startColor.maxColor.b
      value: 0.07352942
      objectReference: {fileID: 0}
    - target: {fileID: 4526294593114380, guid: 5ff7ab96e33d7ff4e98af5c0e8c3b981, type: 2}
      propertyPath: m_LocalScale.x
      value: 40
      objectReference: {fileID: 0}
    m_RemovedComponents: []
  m_ParentPrefab: {fileID: 100100000, guid: 5ff7ab96e33d7ff4e98af5c0e8c3b981, type: 2}
  m_IsPrefabParent: 0
